ISSS626 Geospatial Analytics and Applications - Take-home Exercise 2: Discovering impacts of COVID-19 on Thailand tourism economy at the province level using spatial and spatio-temporal statistics
…
Rows: 30800 Columns: 7
── Column specification ────────────────────────────────────────────────────────
Delimiter: ","
chr  (5): province_thai, province_eng, region_thai, region_eng, variable
dbl  (1): value
date (1): date

ℹ Use `spec()` to retrieve the full column specification for this data.
ℹ Specify the column types or set `show_col_types = FALSE` to quiet this message.

list(thaitour)

[[1]]
# A tibble: 30,800 × 7
   date       province_thai province_eng   region_thai region_eng variable value
   <date>     <chr>         <chr>          <chr>       <chr>      <chr>    <dbl>
 1 2019-01-01 กรุงเทพมหานคร  Bangkok        ภาคกลาง     central    ratio_t…  93.4
 2 2019-01-01 ลพบุรี          Lopburi        ภาคกลาง     central    ratio_t…  61.3
 3 2019-01-01 พระนครศรีอยุธยา Phra Nakhon S… ภาคกลาง     central    ratio_t…  73.4
 4 2019-01-01 สระบุรี         Saraburi       ภาคกลาง     central    ratio_t…  67.3
 5 2019-01-01 ชัยนาท         Chainat        ภาคกลาง     central    ratio_t…  79.3
 6 2019-01-01 นครปฐม        Nakhon Pathom  ภาคกลาง     central    ratio_t…  71.7
 7 2019-01-01 สิงห์บุรี         Sing Buri      ภาคกลาง     central    ratio_t…  64.6
 8 2019-01-01 อ่างทอง        Ang Thong      ภาคกลาง     central    ratio_t…  71.2
 9 2019-01-01 นนทบุรี         Nonthaburi     ภาคกลาง     central    ratio_t…  75.1
10 2019-01-01 ปทุมธานี        Pathum Thani   ภาคกลาง     central    ratio_t…  60.8
# ℹ 30,790 more rows
…
💡To check the different provinces in the data set

thaitour %>%
  count(province_eng) %>%
  print()

# A tibble: 77 × 2
   province_eng      n
   <chr>         <int>
 1 Amnat Charoen   400
 2 Ang Thong       400
 3 Bangkok         400
 4 Bueng Kan       400
 5 Buriram         400
 6 Chachoengsao    400
 7 Chainat         400
 8 Chaiyaphum      400
 9 Chanthaburi     400
10 Chiang Mai      400
# ℹ 67 more rows
…
3.2.9

3.2.10 Save transformed data in rds folder

thai_final <- st_as_sf(thai_final, crs = 32647)
thai_final

Simple feature collection with 3850 features and 15 fields
Geometry type: MULTIPOLYGON
Dimension:     XY
Bounding box:  xmin: 325178.8 ymin: 620860.6 xmax: 1213656 ymax: 2263241
Projected CRS: WGS 84 / UTM zone 47N
# A tibble: 3,850 × 16
   date.x     province_eng             region_eng Shape_Leng Shape_Area
 * <date>     <chr>                    <chr>           <dbl>      <dbl>
 1 2019-01-01 Bangkok                  central          2.42     0.131 
 2 2019-01-01 Lop Buri                 central          5.69     0.546 
 3 2019-01-01 Phra Nakhon Si Ayutthaya central          3.04     0.214 
 4 2019-01-01 Saraburi                 central          4.77     0.292 
 5 2019-01-01 Chai Nat                 central          2.90     0.209 
 6 2019-01-01 Nakhon Pathom            central          2.46     0.179 
 7 2019-01-01 Sing Buri                central          1.78     0.0687
 8 2019-01-01 Ang Thong                central          1.74     0.0792
 9 2019-01-01 Nonthaburi               central          1.25     0.0532
10 2019-01-01 Pathum Thani             central          1.88     0.127 
# ℹ 3,840 more rows
# ℹ 11 more variables: geometry <MULTIPOLYGON [m]>, ratio_tourist_stay <dbl>,
#   no_tourist_stay <dbl>, no_tourist_all <dbl>, no_tourist_thai <dbl>,
#   no_tourist_foreign <dbl>, revenue_all <dbl>, revenue_thai <dbl>,
#   revenue_foreign <dbl>, year <dbl>, month <dbl>
…
