ISSS626 Geospatial Analytics and Applications - Take-home Exercise 1: Geospatial Analytics for Public Good
…
Filter accident dataset by main cause of accidents As there can be many causes of traffic accidents, we shall zoom in on a single main cause for this exercise in order to better analyse the effects of temporal factors.

cause_counts <- acc %>%
  group_by(presumed_cause) %>%
  summarise(count = n()) %>%
  arrange(desc(count))

print(cause_counts)

Simple feature collection with 54 features and 2 fields
Geometry type: GEOMETRY
Dimension:     XY
Bounding box:  xmin: -16183190 ymin: -936.228 xmax: 1200243 ymax: 4918525
Projected CRS: WGS 84 / UTM zone 47N
# A tibble: 54 × 3
   presumed_cause                                count                  geometry
   <chr>                                         <int>          <MULTIPOINT [m]>
 1 speeding                                      60368 ((378564 2081501), (3811…
 2 cutting in closely by people/vehicles/animals  6722 ((390068.1 2148097), (39…
 3 falling asleep                                 4700 ((-2204671 4918525), (38…
 4 vehicle equipment failure                      2747 ((387296.5 2010111), (39…
 5 driving under the influence of alcohol         1464 ((385703.1 2140374), (38…
 6 other                                          1226 ((389650.7 2136022), (39…
 7 running red lights/traffic signals              911 ((429302.9 882835.9), (4…
 8 unfamiliarity with the route/unskilled drivi…   677 ((387962.9 2090421), (38…
 9 illegal overtaking                              445 ((389702.9 2138158), (41…
10 debris/obstruction on the road                  294 ((386447.8 1987575), (38…
# ℹ 44 more rows
…
